{
  "project_info": {
    "project_number": "621419951617",
    "project_id": "incivisme-c4af7",
    "storage_bucket": "incivisme-c4af7.appspot.com"
  },
  "client": [
    {
      "client_info": {
        "mobilesdk_app_id": "1:621419951617:android:e72cfd32db1ba015e4f200",
        "android_client_info": {
          "package_name": "com.example.incivisme"
        }
      },
      "oauth_client": [
        {
          "client_id": "621419951617-jr57dfbrbb85turuoi9rib2u2if9e3s9.apps.googleusercontent.com",
          "client_type": 1,
          "android_info": {
            "package_name": "com.example.incivisme",
            "certificate_hash": "2374d5ef45f3f95589ca310082ab611b076d7153"
          }
        },
        {
          "client_id": "621419951617-cen3mjeo772smjde785oiesfn76ot345.apps.googleusercontent.com",
          "client_type": 3
        }
      ],
      "api_key": [
        {
          "current_key": "AIzaSyCmpK6Vmf0MZFpPPdnFZZQeRxJ9iJs_Djo"
        }
      ],
      "services": {
        "appinvite_service": {
          "other_platform_oauth_client": [
            {
              "client_id": "621419951617-cen3mjeo772smjde785oiesfn76ot345.apps.googleusercontent.com",
              "client_type": 3
            }
          ]
        }
      }
    }
  ],
  "configuration_version": "1"
}